<svg width="24" height="24" viewBox="0 0 24 24" fill="none" xmlns="http://www.w3.org/2000/svg">
<rect width="24" height="24" rx="6" fill="#25D366"/>
<path d="M5 16L10 11L14 12L18 8" stroke="white" stroke-width="2" strokeLinecap="round" strokeLinejoin="round"/>
<circle cx="16.5" cy="9.5" r="1.5" fill="white"/>
<circle cx="7.5" cy="13.5" r="1.5" fill="white"/>
</svg>
