<svg width="22" height="22" viewBox="0 0 22 22" fill="none" xmlns="http://www.w3.org/2000/svg">
<rect width="22" height="22" rx="6" fill="white"/>
<path d="M7.33301 11H15.583" stroke="#2D2D38" stroke-width="1.5" stroke-linecap="round" stroke-linejoin="round"/>
<path d="M11.917 7.33276L15.5837 10.9994L11.917 14.6661" stroke="#2D2D38" stroke-width="1.5" stroke-linecap="round" stroke-linejoin="round"/>
</svg>
