<svg width="24" height="24" viewBox="0 0 24 24" fill="none" xmlns="http://www.w3.org/2000/svg">
<rect width="24" height="24" rx="6" fill="#0062FF"/>
<circle cx="12" cy="12" r="2" fill="white"/>
<circle cx="18" cy="12" r="2" fill="white"/>
<circle cx="6" cy="12" r="2" fill="white"/>
</svg>
