<svg width="22" height="22" viewBox="0 0 22 22" fill="none" xmlns="http://www.w3.org/2000/svg">
<rect width="22" height="22" rx="6" fill="#A5B6D0"/>
<path d="M10.082 11.6969C10.3128 12.0223 10.6071 12.2915 10.9451 12.4864C11.2832 12.6812 11.657 12.7971 12.0412 12.8261C12.4254 12.8551 12.811 12.7966 13.1719 12.6546C13.5328 12.5126 13.8606 12.2903 14.1329 12.0029L15.7446 10.3026C16.234 9.76814 16.5047 9.05229 16.4986 8.30926C16.4925 7.56622 16.21 6.85545 15.7119 6.33003C15.2139 5.8046 14.5401 5.50656 13.8358 5.50011C13.1315 5.49365 12.4529 5.77929 11.9463 6.2955L11.0222 7.26469" stroke="white" stroke-width="1.2" stroke-linecap="round" stroke-linejoin="round"/>
<path d="M11.9167 10.3028C11.6859 9.97743 11.3916 9.70818 11.0535 9.51334C10.7155 9.31851 10.3417 9.20265 9.95751 9.17362C9.5733 9.14459 9.18766 9.20308 8.82676 9.3451C8.46586 9.48713 8.13813 9.70938 7.86581 9.99677L6.25406 11.6971C5.76474 12.2316 5.49398 12.9474 5.5001 13.6905C5.50622 14.4335 5.78873 15.1443 6.28678 15.6697C6.78484 16.1951 7.45858 16.4932 8.1629 16.4996C8.86723 16.5061 9.54578 16.2204 10.0524 15.7042L10.9711 14.735" stroke="white" stroke-width="1.2" stroke-linecap="round" stroke-linejoin="round"/>
</svg>
