<svg width="26" height="18" viewBox="0 0 26 18" fill="none" xmlns="http://www.w3.org/2000/svg">
<path d="M1 9C1 9 5.36364 1 13 1C20.6364 1 25 9 25 9C25 9 20.6364 17 13 17C5.36364 17 1 9 1 9Z" stroke="#FFCB6D" stroke-width="1.2" stroke-linecap="round" stroke-linejoin="round"/>
<path d="M13.0008 12C14.8082 12 16.2735 10.6569 16.2735 9C16.2735 7.34315 14.8082 6 13.0008 6C11.1933 6 9.72803 7.34315 9.72803 9C9.72803 10.6569 11.1933 12 13.0008 12Z" stroke="#FFCB6D" stroke-width="1.2" stroke-linecap="round" stroke-linejoin="round"/>
</svg>
