<svg width="22" height="19" viewBox="0 0 22 19" fill="none" xmlns="http://www.w3.org/2000/svg">
<path d="M19.4578 2.5062C18.9691 2.02869 18.3889 1.6499 17.7503 1.39146C17.1117 1.13302 16.4272 1 15.7359 1C15.0446 1 14.3601 1.13302 13.7215 1.39146C13.0829 1.6499 12.5026 2.02869 12.0139 2.5062L10.9997 3.49673L9.98554 2.5062C8.99842 1.54212 7.6596 1.0005 6.26361 1.0005C4.86761 1.0005 3.52879 1.54212 2.54168 2.5062C1.55456 3.47028 1 4.77786 1 6.14127C1 7.50469 1.55456 8.81227 2.54168 9.77635L3.55588 10.7669L10.9997 18.037L18.4436 10.7669L19.4578 9.77635C19.9467 9.29907 20.3346 8.73238 20.5992 8.10866C20.8638 7.48494 21 6.81641 21 6.14127C21 5.46613 20.8638 4.79761 20.5992 4.17389C20.3346 3.55017 19.9467 2.98348 19.4578 2.5062V2.5062Z" stroke="#2D2D38" stroke-width="1.5" stroke-linecap="round" stroke-linejoin="round"/>
</svg>
