<svg width="16" height="16" viewBox="0 0 16 16" fill="none" xmlns="http://www.w3.org/2000/svg">
<path d="M7.22226 13.4445C10.6587 13.4445 13.4445 10.6587 13.4445 7.22226C13.4445 3.7858 10.6587 1 7.22226 1C3.7858 1 1 3.7858 1 7.22226C1 10.6587 3.7858 13.4445 7.22226 13.4445Z" stroke="#FDFDFD" stroke-width="1.5" strokeLinecap="round" strokeLinejoin="round"/>
<path d="M15.0001 15.0001L11.6167 11.6167" stroke="#FDFDFD" stroke-width="1.5" strokeLinecap="round" strokeLinejoin="round"/>
</svg>
